TP Ciencia de Datos
…
La no existencia de un .csv con todos los datos cargados de manera prolija, tanto para CABA como nacin, requiere que se trabaje con los xls para poder realizar las tareas correspondientes posteriormente.

3 Carga Data Sets.

#Base de datos
df_nac <- read_excel("C:/Users/lucas/Desktop/Ciencia de datos en salud/TpFinal/Nacional2040.xls",range = "A3:AF31")
df_caba <- read_excel("C:/Users/lucas/Desktop/Ciencia de datos en salud/TpFinal/CABA2040.xls")

4 Exploracin Df Nacional.

Exploracin del data frame nacional.

unique(df_nac)

## # A tibble: 25 x 32
##    `Ambos sexos` ...2     ...3    ...4    ...5    ...6    ...7    ...8    ...9
##    <chr>         <chr>   <dbl>   <dbl>   <dbl>   <dbl>   <dbl>   <dbl>   <dbl>
##  1 Grupo de edad Ao   NA      NA      NA      NA      NA      NA      NA     
##  2 <NA>          <NA>  NA      NA      NA      NA      NA      NA      NA     
##  3 <NA>          2010   2.01e3  2.01e3  2.01e3  2.01e3  2.02e3  2.02e3  2.02e3
##  4 Total         4078~  4.13e7  4.17e7  4.22e7  4.27e7  4.31e7  4.36e7  4.40e7
##  5 0-4           3571~  3.62e6  3.67e6  3.71e6  3.75e6  3.76e6  3.76e6  3.75e6
##  6 5-9           3507~  3.51e6  3.51e6  3.52e6  3.54e6  3.57e6  3.62e6  3.67e6
##  7 10-14         3541~  3.53e6  3.52e6  3.52e6  3.51e6  3.51e6  3.51e6  3.51e6
##  8 15-19         3559~  3.57e6  3.57e6  3.57e6  3.55e6  3.54e6  3.53e6  3.52e6
##  9 20-24         3346~  3.40e6  3.44e6  3.49e6  3.53e6  3.55e6  3.57e6  3.57e6
## 10 25-29         3166~  3.18e6  3.21e6  3.25e6  3.29e6  3.34e6  3.39e6  3.44e6
## # ... with 15 more rows, and 23 more variables: ...10 <dbl>, ...11 <dbl>,
## #   ...12 <dbl>, ...13 <dbl>, ...14 <dbl>, ...15 <dbl>, ...16 <dbl>,
## #   ...17 <dbl>, ...18 <dbl>, ...19 <dbl>, ...20 <dbl>, ...21 <dbl>,
## #   ...22 <dbl>, ...23 <dbl>, ...24 <dbl>, ...25 <dbl>, ...26 <dbl>,
## #   ...27 <dbl>, ...28 <dbl>, ...29 <dbl>, ...30 <dbl>, ...31 <dbl>,
## #   ...32 <dbl>
…
